Place,Name,Team,Sex,BirthYear,Equipment,Event,Division,BodyweightKg,WeightClassKg,Squat1Kg,Squat2Kg,Squat3Kg,Best3SquatKg,Bench1Kg,Bench2Kg,Bench3Kg,Best3BenchKg,Deadlift1Kg,Deadlift2Kg,Deadlift3Kg,Best3DeadliftKg,TotalKg,BirthDate
1,Dmitriy Skorbach,SV Quitt Ankum e.V. 1919,M,2007,Raw,SBD,Youth B,67.1,74,95,110,-125,110,70,77.5,82.5,82.5,140,160,-170.5,160,352.5,
1,Cenk Zümrütkaya,Turnverein Papenburg v. 1896 e.V.,M,2006,Raw,SBD,Youth A,70,74,110,120,130,130,85,90,95,95,160,170,-175,170,395,
1,Finley Hoeft,Todtglüsinger Sportverein von 1930 e.V.,M,2005,Raw,SBD,Youth A,89,93,172.5,180,187.5,187.5,105,112.5,117.5,117.5,177.5,190,200,200,505,
2,Arjen Zoethout,Schwerathletik Hamburg e. V.,M,2005,Raw,SBD,Youth A,89.6,93,160,170,-175,170,105,115,120,120,-190,200,210,210,500,
1,Jakob Gertzen,SV Quitt Ankum e.V. 1919,M,2005,Raw,SBD,Youth A,108.9,120,150,162.5,175,175,90,95,100,100,180,200,220,220,495,
1,Karina Zemechmann,VfK Hannover v. 1903 e.V.,F,2000,Raw,SBD,Juniors,50.6,52,97.5,105,-110,105,42.5,-47.5,47.5,47.5,125,132.5,-140,132.5,285,
1,Sarah Speer,"Schleswig 06 / 1. Schleswiger Sportverein von 1906 e.V.",F,2004,Raw,SBD,Juniors,61.4,63,117.5,-125,125,125,62.5,-67.5,-67.5,62.5,130,140,147.5,147.5,335,
1,Tatjana Vetoskin,FSV von 1861 Sarstedt e.V.,F,2000,Raw,SBD,Juniors,79.2,84,110,120,125,125,52.5,57.5,60,60,145,-157.5,157.5,157.5,342.5,
1,Adam Reinhold,FSV von 1861 Sarstedt e.V.,M,2001,Raw,SBD,Juniors,82.3,83,212.5,222.5,232.5,232.5,115,120,125,125,220,235,-247.5,235,592.5,
1,Hendrik Moldt,Todtglüsinger Sportverein von 1930 e.V.,M,2004,Raw,SBD,Juniors,92.1,93,200,,215,215,137.5,142.5,147.5,147.5,210,227.5,237.5,237.5,600,
2,Daniel Bekesi,FSV von 1861 Sarstedt e.V.,M,2004,Raw,SBD,Juniors,88.3,93,150,162.5,170,170,85,92.5,-100,92.5,167.5,-182.5,-190,167.5,430,
1,Niclas König,BC Vechta e.V.,M,2004,Raw,SBD,Juniors,103.4,105,207.5,215,220,220,135,142.5,-150,142.5,250,265,-272.5,265,627.5,
1,Ahmad Öncel,VfK Hannover v. 1903 e.V.,M,2003,Raw,SBD,Juniors,169.6,120+,225,240,255,255,155,165,175,175,260,282.5,300,300,730,
1,Alexander Patzer,SV Quitt Ankum e.V. 1919,M,1982,Raw,SBD,Masters 1,82.1,83,185,200,205,205,125,-130,-132.5,125,175,185,192.5,192.5,522.5,
1,Thorsten Strehlau,V.f.V Braunschweig e.V.,M,1977,Raw,SBD,Masters 1,93,93,207.5,220,227.5,227.5,-162.5,162.5,172.5,172.5,260,277.5,-290,277.5,677.5,
1,Matthias Koch,V.f.V Braunschweig e.V.,M,1980,Raw,SBD,Masters 1,108.7,120,200,215,225,225,152.5,157.5,162.5,162.5,260,280,-300,280,667.5,
1,Taras Tarasenko #1,BC Vechta e.V.,M,1982,Raw,SBD,Masters 1,125.8,120+,280,300,,300,190,202.5,-207.5,202.5,300,317.5,,317.5,820,
1,Heidrun Woltjen,Turnverein Papenburg v. 1896 e.V.,F,1965,Raw,SBD,Masters 2,61.1,63,100,107.5,115,115,52.5,55,-57.5,55,125,132.5,140,140,310,
1,Christina Knoop,SV Quitt Ankum e.V. 1919,F,1971,Raw,SBD,Masters 2,82.2,84,105,115,-125,115,55,60,-65,60,130,140,-150,140,315,
1,Alexander Axt,SV Quitt Ankum e.V. 1919,M,1955,Raw,SBD,Masters 3,65.6,66,95,105,-110,105,-70,72.5,-75,72.5,135,-155,-155.5,135,312.5,
1,Andreas Rüdiger,HAV 77 e.V.,M,1961,Raw,SBD,Masters 3,92.3,93,120,-132.5,135,135,85,90,92.5,92.5,150,160,165,165,392.5,
2,Holger Pasemann,SC Lüchow,M,1957,Raw,SBD,Masters 3,91.8,93,110,120,-125,120,110,-115,115,115,130,150,-155,150,385,
3,Michael Künstler,SC Elite v. 1921 e.V.,M,1963,Raw,SBD,Masters 3,84.9,93,120,130,135,135,95,100,-105,100,135,145,-150,145,380,
1,Arnold Leesemann,SC Elite v. 1921 e.V.,M,1954,Raw,SBD,Masters 3,102.4,105,160,165,-170,165,125,127.5,130,130,210,220,,220,515,
2,Friedhelm Mandel,Todtglüsinger Sportverein von 1930 e.V.,M,1961,Raw,SBD,Masters 3,103.2,105,135,160,175,175,100,125,132.5,132.5,135,170,-192.5,170,477.5,
1,Bernhard Rogge,FSV von 1861 Sarstedt e.V.,M,1953,Raw,SBD,Masters 4,98,105,120,130,135,135,85,90,95,95,140,150,155,155,385,
2,Hartmut Grulke,SC Elite v. 1921 e.V.,M,1952,Raw,SBD,Masters 4,101,105,115,120,125,125,90,92.5,95,95,135,140,145,145,365,
1,Johanna Henke-Von Der Malsburg,Tuspo 1895 Weende e.V.,F,1993,Raw,SBD,Open,56.2,57,95,102.5,107.5,107.5,60,65,-68,65,125,135,-140,135,307.5,
1,Janine Meyer,SV Quitt Ankum e.V. 1919,F,1996,Raw,SBD,Open,68.8,69,125,130,135,135,65,70,75,75,145,155,-165,155,365,
2,Jana Loureiro-Bade,Todtglüsinger Sportverein von 1930 e.V.,F,1994,Raw,SBD,Open,64.6,69,-140,-140,145,145,70,-75,75,75,140,-150,-155,140,360,
1,Julia Huning,SV Quitt Ankum e.V. 1919,F,1996,Raw,SBD,Open,82.4,84,140.5,-147.5,147.5,147.5,77.5,-82.5,82.5,82.5,160,173,180.5,180.5,410.5,
1,Clemens Lück,Todtglüsinger Sportverein von 1930 e.V.,M,1991,Raw,SBD,Open,73.6,74,190,200,205.5,205.5,130,137.5,-140,137.5,227.5,240,-245,240,583,
1,Sascha Roßkamp,Schwerathletik Hamburg e. V.,M,1991,Raw,SBD,Open,82.2,83,245,257.5,267.5,267.5,167.5,175,181,181,277.5,301.5,310,310,758.5,
2,René Hüsing,VfK Hannover v. 1903 e.V.,M,1998,Raw,SBD,Open,79.1,83,225,235,-245,235,125,130,135,135,225,240,-250,240,610,
1,Tobias Strömel,Berlin Strength e.V.,M,1989,Raw,SBD,Open,90.5,93,235,247.5,255,255,147.5,155,162.5,162.5,235,255,270,270,687.5,
2,Justin Sörensen,Schwerathletik Hamburg e. V.,M,1993,Raw,SBD,Open,92.9,93,230,-240,240,240,160,165,-170,165,260,275,-285,275,680,
1,Nico Šubic,Kraftdreikampf Flensburg e. V.,M,1994,Raw,SBD,Open,101.5,105,235,242.5,250,250,150,157.5,162.5,162.5,265,280,290,290,702.5,
1,Niklas Lapinske,SV Quitt Ankum e.V. 1919,M,1996,Raw,SBD,Open,106.1,120,262.5,278,288,288,157.5,165,-170,165,295,315,325,325,778,
2,Jesper Brand,VfK Hannover v. 1903 e.V.,M,1999,Raw,SBD,Open,117.1,120,-260,-270,277.5,277.5,165,177.5,-185,177.5,-245,245,-260,245,700,
1,Dmitrij Nekrasov,V.f.V Braunschweig e.V.,M,1987,Raw,SBD,Open,155.3,120+,275,290,-300,290,175,185,-187.5,185,255,265,275,275,750,
2,Alexander Bruns,Schwerathletik Hamburg e. V.,M,1994,Raw,SBD,Open,156.1,120+,247.5,272.5,280,280,150,160,167.5,167.5,235,250,262.5,262.5,710,
1,Dorothee Beinke,SV Quitt Ankum e.V. 1919,F,1995,Single-ply,SBD,Open,69,69,135,142.5,150,150,72.5,92.5,-97.5,92.5,135,142.5,149,149,391.5,
